…
comparison <- tidyweather %>% 
  filter(Year>= 1881) %>%     #remove years prior to 1881
  #create new variable 'interval', and assign values based on criteria below:
  mutate(interval = case_when(
    Year %in% c(1881:1920) ~ "1881-1920",
    Year %in% c(1921:1950) ~ "1921-1950",
    Year %in% c(1951:1980) ~ "1951-1980",
    Year %in% c(1981:2010) ~ "1981-2010",
    TRUE ~ "2011-present"
  ))

comparison

## # A tibble: 1,704 × 7
##     Year Month delta date       month  year interval 
##    <dbl> <fct> <dbl> <date>     <ord> <dbl> <chr>    
##  1  1881 Jan   -0.3  1881-01-01 Jan    1881 1881-1920
##  2  1881 Feb   -0.24 1881-02-01 Feb    1881 1881-1920
##  3  1881 Mar   -0.05 1881-03-01 Mar    1881 1881-1920
##  4  1881 Apr   -0.02 1881-04-01 Apr    1881 1881-1920
##  5  1881 May    0.05 1881-05-01 May    1881 1881-1920
##  6  1881 Jun   -0.33 1881-06-01 Jun    1881 1881-1920
##  7  1881 Jul    0.1  1881-07-01 Jul    1881 1881-1920
##  8  1881 Aug   -0.04 1881-08-01 Aug    1881 1881-1920
##  9  1881 Sep   -0.28 1881-09-01 Sep    1881 1881-1920
## 10  1881 Oct   -0.44 1881-10-01 Oct    1881 1881-1920
## # … with 1,694 more rows
## # ℹ Use `print(n = ...)` to see more rows
…
